<?xml version="1.0" encoding="iso-8859-1"?>
<!-- Generator: Adobe Illustrator 19.0.0, SVG Export Plug-In . SVG Version: 6.00 Build 0)  -->
<svg version="1.1" id="Capa_1" xmlns="http://www.w3.org/2000/svg" xmlns:xlink="http://www.w3.org/1999/xlink" x="0px" y="0px"
	 viewBox="0 0 512.003 512.003" style="enable-background:new 0 0 512.003 512.003;" xml:space="preserve">
<g>
	<g>
		<g>
			<path d="M385.8,177.036c4.143,0,7.5-3.357,7.5-7.5v-11.674c0-4.143-3.357-7.5-7.5-7.5c-4.142,0-7.5,3.357-7.5,7.5v11.674
				C378.3,173.679,381.657,177.036,385.8,177.036z"/>
			<path d="M493.529,486.636h-59.758l-25.567-78.977c-3.391-10.474-9.051-19.993-16.522-27.93
				c9.292-13.87,15.055-29.551,16.827-45.869c0.025-0.021,0.052-0.043,0.077-0.064c12.828-11.087,14.246-30.543,3.16-43.373
				c-1.78-2.059-3.777-3.82-5.926-5.287c11.32-4.682,21.553-10.181,30.539-16.461c31.457-21.982,48.084-53.774,48.084-91.941
				c0-18.497-3.76-36.495-10.967-53.397c20.062-30.048,25.573-66.936,15.064-101.925c-3.344-11.131-12.962-19.201-24.502-20.561
				c-34.866-4.106-69.18,6.775-94.932,29.919c-23.315-8.313-48.625-12.688-74.732-12.688c-25.864,0-51.251,4.406-74.67,12.744
				C193.943,7.644,159.592-3.261,124.709,0.852c-11.542,1.359-21.16,9.43-24.503,20.562c-10.519,35.017-4.989,71.938,15.115,101.998
				c-2.453,5.739-4.515,11.604-6.163,17.573c-5.949-3.019-12.633-4.336-19.441-3.743c-9.612,0.841-18.321,5.375-24.522,12.767
				l-45.785,54.565c-12.804,15.259-10.806,38.088,4.452,50.892l62.868,52.753l15.412,13.099c-1.288,5.295-1.142,10.858,0.492,16.206
				c2.401,7.855,7.717,14.306,14.97,18.163c0.071,0.038,0.145,0.07,0.217,0.107c-5.05,0.749-9.931,1.991-14.554,3.748
				c-15.829,6.016-27.489,17.704-32.835,32.911c-4.027,11.46,2.02,24.061,13.483,28.092c2.36,0.828,4.817,1.248,7.302,1.248
				c9.334,0,17.688-5.919,20.785-14.728c0.319-0.906,0.827-2.01,1.84-3.118c0.186-0.169,0.362-0.346,0.527-0.531
				c1.028-0.959,2.472-1.898,4.55-2.687c9.516-3.615,24.423-1.323,37.095,5.708c17.542,9.732,34.951,11.307,51.825,4.717
				l10.582,8.994c-1.784,11.339-6.203,24.73-9.998,35.465c-2.737,7.744-2.296,16.091,1.244,23.503
				c3.541,7.411,9.755,13.001,17.502,15.74c3.314,1.17,6.762,1.764,10.246,1.764c13.005,0,24.655-8.241,28.992-20.508
				c1.467-4.148,2.793-8.057,3.997-11.781l22.725,19.315c10.664,8.948,23.589,14.695,37.378,16.618l82.88,11.557
				c0.888,0.124,1.773,0.185,2.652,0.185c5.545,0,10.804-2.424,14.439-6.757c0.944-1.124,1.733-2.338,2.38-3.608h60.676
				c4.143,0,7.5-3.357,7.5-7.5C501.03,489.995,497.672,486.636,493.529,486.636z M398.777,322.444
				c-17.363,15.006-51.836,28.67-72.325,28.67h-0.123c-8.686-0.024-15.732-7.108-15.708-15.793
				c0.024-8.642,7.057-15.676,15.689-15.708c0.081,0.002,0.163,0,0.246,0c10.875-0.047,38.24-9.44,51.624-21.005
				c6.571-5.679,16.538-4.952,22.217,1.618C406.075,306.799,405.349,316.765,398.777,322.444z M326.308,366.113h0.143
				c6.821,0,14.7-1.171,22.953-3.245l26.301,22.355c3.007,2.523,5.733,5.329,8.159,8.363l-29.8,35.514L143.442,252.368
				l31.619-37.682l124.436,105.766c-2.453,4.398-3.862,9.452-3.877,14.828C295.575,352.235,309.332,366.067,326.308,366.113z
				 M380.415,369.541l-14.1-11.985c8.524-3.192,16.959-7.12,24.609-11.506C388.621,354.28,385.089,362.185,380.415,369.541z
				 M465.567,107.581c-9.26-15.951-21.788-30.648-37.315-43.503c-0.987-0.817-1.986-1.62-2.991-2.417
				c17.448-13.945,36.512-20.825,51.686-24.198C479.942,54.253,480.652,80.596,465.567,107.581z M462.282,15.748
				c4.597,0.542,8.561,3.279,10.733,7.228c-17.721,4.023-40.1,12.363-60.286,29.577c-8.793-5.858-18.121-11.015-27.886-15.434
				C415.189,13.381,448.504,14.124,462.282,15.748z M294.373,33.083c96.534,0,175.07,64.44,175.07,143.647
				c0,33.524-14.022,60.322-41.676,79.645c-25.596,17.887-62.68,28.958-107.24,32.018c-4.133,0.284-7.253,3.863-6.969,7.996
				c0.271,3.958,3.566,6.986,7.475,6.986c0.173,0,0.347-0.006,0.521-0.018c6.281-0.431,12.424-1.022,18.428-1.759
				c-5.801,1.891-10.824,3.014-13.508,3.014c-0.037-0.001-0.071-0.001-0.104,0c-6.105,0-11.8,1.801-16.592,4.889l-96.513-82.032
				c5.29-2.451,10.142-4.376,13.261-5.204c4.004-1.063,6.388-5.17,5.325-9.173s-5.169-6.384-9.173-5.325
				c-6.156,1.634-14.846,5.523-21.899,9.09l-19.804-16.833c0.041-0.01,0.083-0.013,0.124-0.023
				c7.475-1.871,27.255-3.319,35.808-2.186c4.104,0.535,7.875-2.347,8.418-6.453c0.542-4.106-2.347-7.875-6.453-8.418
				c-10.579-1.396-32.3,0.225-41.411,2.504c-3.264,0.817-5.489,3.656-5.671,6.847l-31.157-26.143
				c-0.001-0.001-0.002-0.002-0.003-0.003c-0.001-0.001-0.002-0.001-0.003-0.002l-18.437-15.47
				c7.107-31.731,27.26-60.786,57.146-82.194c0.111-0.08,0.225-0.156,0.337-0.236c0.012-0.008,0.024-0.017,0.037-0.026
				C211.523,45.563,252.222,33.083,294.373,33.083z M126.464,15.748c13.786-1.625,47.135-2.366,77.495,21.418
				c-9.794,4.415-19.146,9.56-27.933,15.396c-20.189-17.22-42.572-25.561-60.296-29.585
				C117.903,19.027,121.867,16.29,126.464,15.748z M111.798,37.462c15.175,3.374,34.241,10.255,51.69,24.201
				c-16.731,13.263-30.336,28.873-40.263,45.996C108.093,80.648,108.8,54.269,111.798,37.462z M33.502,243.973
				c-8.923-7.487-10.091-20.838-2.604-29.76l45.785-54.565c3.627-4.322,8.72-6.974,14.341-7.465
				c5.613-0.496,11.097,1.233,15.419,4.861l18.803,15.777l-72.94,86.928L33.502,243.973z M63.794,269.391l72.94-86.927
				l26.867,22.544l-36.466,43.458c-0.002,0.002-0.004,0.003-0.005,0.005c-0.002,0.002-0.003,0.004-0.004,0.006L90.66,291.935
				L63.794,269.391z M108.758,307.254l-6.638-5.642l31.68-37.754l11.231,9.424c-8.008,0.881-15.224,4.773-20.357,11.002
				C117.921,292.48,112.308,301.268,108.758,307.254z M116.977,333.136c-1.229-4.023-0.819-8.285,1.157-12.001
				c1.334-2.508,8.474-15.611,18.117-27.312c2.676-3.247,6.455-5.258,10.643-5.661c0.516-0.05,1.03-0.074,1.541-0.074
				c3.643,0,7.142,1.25,9.988,3.597c6.702,5.523,7.661,15.47,2.139,22.172c-6.403,7.772-12.2,17.533-14.614,22.073
				c-1.207,2.269-2.917,4.159-4.951,5.564c-0.043,0.027-0.086,0.055-0.129,0.083c-2.563,1.735-5.627,2.711-8.848,2.711
				c-2.586,0-5.068-0.622-7.376-1.85C120.929,340.463,118.206,337.159,116.977,333.136z M97.848,402.084
				c-0.989,2.813-3.656,4.704-6.635,4.704c-0.789,0-1.574-0.136-2.331-0.4c-3.657-1.286-5.588-5.31-4.302-8.967
				c0.668-1.902,1.486-3.723,2.427-5.467c3.711,1.166,8.513,3.247,12.305,6.8C98.75,399.817,98.256,400.924,97.848,402.084z
				 M163.287,393.317c-16.823-9.334-35.867-11.869-49.699-6.612c-1.232,0.468-2.399,1.001-3.511,1.585
				c-3.957-3.852-8.491-6.563-12.748-8.454c3.307-2.566,7.081-4.688,11.264-6.278c17.864-6.789,40.86-4.001,61.516,7.46
				c1.799,0.999,3.526,1.827,5.242,2.522l18.772,15.956C184.107,401.26,173.928,399.22,163.287,393.317z M252.26,471.108
				c-2.222,6.285-8.191,10.508-14.851,10.508c-1.778,0-3.546-0.306-5.249-0.907c-8.188-2.895-12.496-11.912-9.601-20.1
				c3.097-8.76,6.594-19.233,8.942-29.343l26.485,22.511C256.374,459.097,254.488,464.808,252.26,471.108z M332.573,485.404
				c-1.798-0.251-3.575-0.591-5.331-1.003l2.727-3.249c2.663-3.173,2.249-7.903-0.924-10.566c-3.173-2.663-7.903-2.249-10.566,0.924
				l-6.064,7.226c-3.399-1.857-6.623-4.045-9.614-6.554l-71.584-60.844c-0.005-0.004-0.01-0.009-0.015-0.013l-17.099-14.533
				c-0.004-0.003-0.007-0.006-0.011-0.009L156.18,347.56c1.121-1.425,2.139-2.95,3.01-4.588c2.152-4.047,7.301-12.726,12.947-19.578
				c5.173-6.278,7.425-14.012,6.931-21.552l165.355,138.748l-4.943,5.891c-2.663,3.174-2.249,7.904,0.924,10.566
				c1.405,1.18,3.116,1.755,4.817,1.755c2.141,0,4.266-0.911,5.749-2.679l9.762-11.634c0.001-0.001,0.001-0.001,0.002-0.002
				l0.002-0.003l31.284-37.282c0.71,1.658,1.354,3.348,1.913,5.075l12.605,38.938l-33.429,39.84L332.573,485.404z M418.982,495.602
				c-0.418,0.498-1.608,1.619-3.529,1.358l-24.814-3.46l21.352-25.445l7.717,23.836
				C420.307,493.746,419.399,495.105,418.982,495.602z"/>
			<path d="M315.477,186c9.274,0,18.093-4.017,24.194-11.019c2.722-3.123,2.395-7.86-0.727-10.582
				c-3.125-2.722-7.861-2.396-10.582,0.727c-3.253,3.733-7.95,5.874-12.887,5.874c-4.937,0-9.634-2.141-12.888-5.874
				c-2.721-3.124-7.459-3.448-10.581-0.726c-3.123,2.722-3.447,7.459-0.726,10.581C297.385,181.985,306.204,186,315.477,186z"/>
			<path d="M404.427,222.267c8.336,2.213,26.073,11.087,32.273,15.664c1.34,0.989,2.9,1.466,4.448,1.466
				c2.3,0,4.569-1.054,6.04-3.046c2.46-3.332,1.753-8.027-1.58-10.488c-7.557-5.579-27.019-15.355-37.333-18.094
				c-4.01-1.059-8.111,1.322-9.174,5.324C398.039,217.097,400.423,221.204,404.427,222.267z"/>
			<path d="M245.153,177.036c4.143,0,7.5-3.357,7.5-7.5v-11.674c0-4.143-3.357-7.5-7.5-7.5c-4.143,0-7.5,3.357-7.5,7.5v11.674
				C237.653,173.679,241.01,177.036,245.153,177.036z"/>
			<path d="M414.045,197.819c8.554-1.13,28.332,0.317,35.808,2.186c0.61,0.152,1.223,0.226,1.825,0.226
				c3.36,0,6.418-2.274,7.271-5.683c1.005-4.019-1.439-8.09-5.457-9.096c-9.112-2.278-30.829-3.9-41.411-2.504
				c-4.106,0.543-6.995,4.311-6.453,8.418S409.949,198.353,414.045,197.819z"/>
		</g>
	</g>
</g>
<g>
</g>
<g>
</g>
<g>
</g>
<g>
</g>
<g>
</g>
<g>
</g>
<g>
</g>
<g>
</g>
<g>
</g>
<g>
</g>
<g>
</g>
<g>
</g>
<g>
</g>
<g>
</g>
<g>
</g>
</svg>
